…
    ##  [1] "Regiao - Sigla"      "Estado - Sigla"      "Municipio"          
    ##  [4] "Revenda"             "CNPJ da Revenda"     "Nome da Rua"        
    ##  [7] "Numero Rua"          "Complemento"         "Bairro"             
    ## [10] "Cep"                 "Produto"             "Data da Coleta"     
    ## [13] "Valor de Venda"      "Valor de Compra"     "Unidade de Medida"  
    ## [16] "Bandeira"            "codigo do Municipio" "Estado - Codigo"    
    ## [19] "Nome do Estado"      "Regiao - Codigo"     "Nome da Regiao"     
    ## [22] "geom"                "longitude"           "latitude"

``` r
dados.anp <- dados.anp %>% select(-`Nome da Rua`,-geom,-Complemento,-`Valor de Compra`);dados.anp
```

    ## # A tibble: 420,409 × 20
    ##    `Regiao - Sigla` `Estado - Sigla` Municipio Revenda         `CNPJ da Revenda`
    ##    <chr>            <chr>            <chr>     <chr>           <chr>            
    ##  1 NE               CE               SOBRAL    ECONOGÁS DO BR… 08.775.979/0002-…
    ##  2 NE               CE               SOBRAL    ECONOGÁS DO BR… 08.775.979/0002-…
    ##  3 NE               CE               SOBRAL    ECONOGÁS DO BR… 08.775.979/0002-…
    ##  4 NE               CE               SOBRAL    ECONOGÁS DO BR… 08.775.979/0002-…
    ##  5 NE               CE               SOBRAL    V.C.EMPREENDIM… 03.551.935/0002-…
    ##  6 NE               CE               SOBRAL    V.C.EMPREENDIM… 03.551.935/0002-…
    ##  7 NE               CE               SOBRAL    V.C.EMPREENDIM… 03.551.935/0002-…
    ##  8 NE               CE               SOBRAL    V.C.EMPREENDIM… 03.551.935/0002-…
    ##  9 NE               CE               SOBRAL    CENTER POSTO C… 02.905.892/0001-…
    ## 10 NE               CE               SOBRAL    CENTER POSTO C… 02.905.892/0001-…
    ## # ℹ 420,399 more rows
    ## # ℹ 15 more variables: `Numero Rua` <chr>, Bairro <chr>, Cep <chr>,
    ## #   Produto <chr>, `Data da Coleta` <dttm>, `Valor de Venda` <dbl>,
    ## #   `Unidade de Medida` <chr>, Bandeira <chr>, `codigo do Municipio` <dbl>,
    ## #   `Estado - Codigo` <dbl>, `Nome do Estado` <chr>, `Regiao - Codigo` <dbl>,
    ## #   `Nome da Regiao` <chr>, longitude <dbl>, latitude <dbl>
…
#### Ranking do valor médio dos combustíveis por Municipio

``` r
## 1. Calcular média por Municipio
media_municipio <- dados.anp %>%
 group_by(`codigo do Municipio`,Municipio) %>%
 summarise(valor_medio = mean(`Valor de Venda`), .groups = "drop")%>%
  arrange(desc(valor_medio))
media_municipio
```

    ## # A tibble: 409 × 3
    ##    `codigo do Municipio` Municipio       valor_medio
    ##                    <dbl> <chr>                 <dbl>
    ##  1               1303403 PARINTINS              8.29
    ##  2               1200203 CRUZEIRO DO SUL        7.78
    ##  3               1200401 RIO BRANCO             7.18
    ##  4               1500404 ALENQUER               7.16
    ##  5               4301602 BAGE                   7.00
    ##  6               5003207 CORUMBA                6.99
    ##  7               1100122 JI-PARANA              6.94
    ##  8               1506807 SANTAREM               6.88
    ##  9               1500602 ALTAMIRA               6.85
    ## 10               1400100 BOA VISTA              6.84
    ## # ℹ 399 more rows
…
#### Ranking do valor médio dos combustíveis por Estado

``` r
## 1. Calcular média por Estado
media_estado <- dados.anp %>%
 group_by(`Nome do Estado`) %>%
 summarise(valor_medio = mean(`Valor de Venda`), .groups = "drop")%>%
  arrange(desc(valor_medio))
media_estado
```

    ## # A tibble: 27 × 2
    ##    `Nome do Estado`  valor_medio
    ##    <chr>                   <dbl>
    ##  1 Acre                     7.42
    ##  2 Roraima                  6.84
    ##  3 Amazonas                 6.80
    ##  4 Rondônia                 6.73
    ##  5 Pará                     6.37
    ##  6 Amapá                    6.24
    ##  7 Distrito Federal         6.15
    ##  8 Rio Grande do Sul        6.13
    ##  9 Ceará                    6.12
    ## 10 Santa Catarina           6.11
    ## # ℹ 17 more rows
…
